{
  "files": {
    "main.css": "/elua/static/css/main.162a0975.chunk.css",
    "main.js": "/elua/static/js/main.f2a20856.chunk.js",
    "main.js.map": "/elua/static/js/main.f2a20856.chunk.js.map",
    "runtime-main.js": "/elua/static/js/runtime-main.5475fb30.js",
    "runtime-main.js.map": "/elua/static/js/runtime-main.5475fb30.js.map",
    "static/js/2.52e7d061.chunk.js": "/elua/static/js/2.52e7d061.chunk.js",
    "static/js/2.52e7d061.chunk.js.map": "/elua/static/js/2.52e7d061.chunk.js.map",
    "index.html": "/elua/index.html",
    "static/css/main.162a0975.chunk.css.map": "/elua/static/css/main.162a0975.chunk.css.map",
    "static/js/2.52e7d061.chunk.js.LICENSE.txt": "/elua/static/js/2.52e7d061.chunk.js.LICENSE.txt"
  },
  "entrypoints": [
    "static/js/runtime-main.5475fb30.js",
    "static/js/2.52e7d061.chunk.js",
    "static/css/main.162a0975.chunk.css",
    "static/js/main.f2a20856.chunk.js"
  ]
}