<?xml version="1.0" encoding="utf-8"?>
<svg version="1.1" id="Слой_1" xmlns="http://www.w3.org/2000/svg" xmlns:xlink="http://www.w3.org/1999/xlink" x="0px" y="0px"
	 viewBox="0 30 195.28 141.89" style="enable-background:new 0 0 595.28 841.89;" xml:space="preserve">
<style type="text/css">
	.st0{font-family:'MyriadPro-Regular';}
	.st1{font-size:12px;}
</style>
<text transform="matrix(1 0 0 1 8.617 19.2766)"><tspan x="0" y="0" class="st0 st1">Дорогие гости, помогите!</tspan><tspan x="0" y="14.4" class="st0 st1">Паука-злодея зарубите!</tspan><tspan x="0" y="28.8" class="st0 st1">     И кормила я вас,</tspan><tspan x="0" y="43.2" class="st0 st1">     И поила я вас,</tspan><tspan x="0" y="57.6" class="st0 st1">Не покиньте меня</tspan><tspan x="0" y="72" class="st0 st1">В мой последний час!</tspan></text>
</svg>
