<svg xmlns="http://www.w3.org/2000/svg" width="75.609" height="114.987" viewBox="0 0 75.609 114.987">
    <g id="Group_3" data-name="Group 3" transform="translate(-337.425 -652.213)">
        <g id="Group_1" data-name="Group 1" transform="translate(337.425 652.213)">
            <path id="Path_1" data-name="Path 1" d="M360.085,677.012H343.441V668.9H358.4v-5.02H343.441v-6.6h16.075v-5.04H337.425v29.793h22.66Z" transform="translate(-337.425 -652.209)" fill="#3bbdf1"/>
            <path id="Path_2" data-name="Path 2" d="M391.777,677.045V652.212h-6.09v29.914h21.232v-5.082Z" transform="translate(-331.309 -652.212)" fill="#3bbdf1"/>
            <path id="Path_3" data-name="Path 3" d="M354.808,719.584a32.75,32.75,0,0,1-.257,4.932,4.032,4.032,0,0,1-1.523,2.506,5.884,5.884,0,0,1-3.757,1.02,6.221,6.221,0,0,1-3.865-1.079,4.7,4.7,0,0,1-1.789-2.862,32.629,32.629,0,0,1-.217-4.853V703.521h-5.852V719.01a35.271,35.271,0,0,0,.573,7.368,8,8,0,0,0,1.641,3.218,9.005,9.005,0,0,0,3.39,2.5,16.019,16.019,0,0,0,6.3.961,14.8,14.8,0,0,0,5.576-.882,8.84,8.84,0,0,0,3.411-2.366,8.193,8.193,0,0,0,1.75-3.645,39.325,39.325,0,0,0,.474-7.387V703.521h-5.852Z" transform="translate(-337.41 -645.711)" fill="#3bbdf1"/>
            <path id="Path_4" data-name="Path 4" d="M396.343,733.135c-3.164-4.729-6.33-9.088-9.1-13.714a11.315,11.315,0,0,1,2.451-14.005,9.979,9.979,0,0,1,13.517.176,11.384,11.384,0,0,1,2.18,13.954C402.618,724.118,399.488,728.445,396.343,733.135Zm-.008-13.68a5.44,5.44,0,1,0-5.1-5.479A5.324,5.324,0,0,0,396.335,719.456Z" transform="translate(-331.295 -645.794)" fill="#3bbdf1"/>
        </g>
        <g id="Group_2" data-name="Group 2" transform="translate(337.477 763.465)">
            <path id="Path_5" data-name="Path 5" d="M339.609,754.328a1.123,1.123,0,0,1-.007.135.385.385,0,0,1-.021.088.114.114,0,0,1-.035.049.075.075,0,0,1-.046.015h-1.812a.228.228,0,0,1-.154-.054.222.222,0,0,1-.063-.177v-3.143a.205.205,0,0,1,.217-.232h1.8a.073.073,0,0,1,.045.015.106.106,0,0,1,.034.048.385.385,0,0,1,.02.089,1.148,1.148,0,0,1,.007.139,1.076,1.076,0,0,1-.007.132.356.356,0,0,1-.02.088.119.119,0,0,1-.034.049.074.074,0,0,1-.045.016H338.2v.881h1.09a.077.077,0,0,1,.046.015.122.122,0,0,1,.035.047.341.341,0,0,1,.02.087,1.3,1.3,0,0,1,0,.266.34.34,0,0,1-.02.086.108.108,0,0,1-.035.045.078.078,0,0,1-.046.015H338.2v1.017h1.3a.076.076,0,0,1,.046.015.116.116,0,0,1,.035.05.39.39,0,0,1,.021.087A1.143,1.143,0,0,1,339.609,754.328Z" transform="translate(-337.471 -750.945)" fill="#c7c7c7"/>
            <path id="Path_6" data-name="Path 6" d="M343.559,754.341a.872.872,0,0,1,.065.157.085.085,0,0,1-.018.089.216.216,0,0,1-.122.04c-.059.006-.14.008-.243.008-.088,0-.157,0-.206-.006a.613.613,0,0,1-.119-.018.124.124,0,0,1-.062-.035.189.189,0,0,1-.034-.055l-.677-1.3-.675,1.3a.258.258,0,0,1-.036.055.124.124,0,0,1-.062.035.611.611,0,0,1-.12.018c-.051,0-.118.006-.2.006s-.171,0-.224-.008a.174.174,0,0,1-.108-.04.09.09,0,0,1-.01-.089.784.784,0,0,1,.069-.157l.864-1.574-.8-1.48a1.1,1.1,0,0,1-.069-.16.08.08,0,0,1,.015-.089A.2.2,0,0,1,340.9,751c.057,0,.139-.008.244-.008.088,0,.157,0,.208.006a.716.716,0,0,1,.121.018.127.127,0,0,1,.063.035.316.316,0,0,1,.035.056l.632,1.193.616-1.193a.321.321,0,0,1,.035-.056.126.126,0,0,1,.059-.035.611.611,0,0,1,.112-.018c.047,0,.113-.006.2-.006s.167,0,.221.008a.178.178,0,0,1,.112.037.088.088,0,0,1,.015.089.939.939,0,0,1-.062.159l-.8,1.471Z" transform="translate(-337.062 -750.947)" fill="#c7c7c7"/>
            <path id="Path_7" data-name="Path 7" d="M347.1,754.076c0,.047,0,.087,0,.12a.689.689,0,0,1-.014.083.271.271,0,0,1-.021.06.345.345,0,0,1-.045.057.569.569,0,0,1-.118.082,1.452,1.452,0,0,1-.215.1,1.865,1.865,0,0,1-.29.077,1.934,1.934,0,0,1-.353.03,1.866,1.866,0,0,1-.668-.114,1.332,1.332,0,0,1-.508-.342,1.534,1.534,0,0,1-.32-.568,2.538,2.538,0,0,1-.112-.791,2.5,2.5,0,0,1,.123-.817,1.7,1.7,0,0,1,.343-.6,1.437,1.437,0,0,1,.528-.367,1.766,1.766,0,0,1,.678-.126,1.614,1.614,0,0,1,.29.026,1.635,1.635,0,0,1,.258.065,1.246,1.246,0,0,1,.213.094.643.643,0,0,1,.133.09.35.35,0,0,1,.052.063.194.194,0,0,1,.021.064.8.8,0,0,1,.013.091c0,.036,0,.079,0,.131a1.319,1.319,0,0,1-.006.143.378.378,0,0,1-.019.095.128.128,0,0,1-.034.053.063.063,0,0,1-.044.017.193.193,0,0,1-.106-.05,1.618,1.618,0,0,0-.166-.108,1.339,1.339,0,0,0-.243-.109,1.05,1.05,0,0,0-.336-.048.794.794,0,0,0-.67.339,1.166,1.166,0,0,0-.179.394,2.268,2.268,0,0,0,0,1.072,1.066,1.066,0,0,0,.186.383.764.764,0,0,0,.293.224.961.961,0,0,0,.387.074,1.107,1.107,0,0,0,.337-.046,1.391,1.391,0,0,0,.243-.1,1.822,1.822,0,0,0,.168-.1.211.211,0,0,1,.1-.044.077.077,0,0,1,.045.011.074.074,0,0,1,.027.044.4.4,0,0,1,.017.093A1.556,1.556,0,0,1,347.1,754.076Z" transform="translate(-336.589 -750.951)" fill="#c7c7c7"/>
            <path id="Path_8" data-name="Path 8" d="M351.224,753.275a1.711,1.711,0,0,1-.1.594,1.167,1.167,0,0,1-.287.443,1.247,1.247,0,0,1-.469.276,1.986,1.986,0,0,1-.641.095,2.038,2.038,0,0,1-.61-.085,1.2,1.2,0,0,1-.457-.258,1.13,1.13,0,0,1-.286-.43,1.7,1.7,0,0,1-.1-.6v-2.194a.079.079,0,0,1,.016-.05.119.119,0,0,1,.061-.036.532.532,0,0,1,.113-.023,1.518,1.518,0,0,1,.178-.009,1.485,1.485,0,0,1,.176.009.533.533,0,0,1,.112.023.125.125,0,0,1,.06.036.075.075,0,0,1,.018.05v2.129a1.179,1.179,0,0,0,.053.372.671.671,0,0,0,.152.261.62.62,0,0,0,.237.154.937.937,0,0,0,.617,0,.619.619,0,0,0,.231-.154.7.7,0,0,0,.146-.251,1.021,1.021,0,0,0,.052-.339v-2.171a.08.08,0,0,1,.017-.05.116.116,0,0,1,.059-.036.532.532,0,0,1,.113-.023,1.522,1.522,0,0,1,.177-.009,1.468,1.468,0,0,1,.175.009.51.51,0,0,1,.109.023.115.115,0,0,1,.059.036.08.08,0,0,1,.017.05Z" transform="translate(-336.101 -750.947)" fill="#c7c7c7"/>
            <path id="Path_9" data-name="Path 9" d="M355.277,754.521a.1.1,0,0,1-.011.052.086.086,0,0,1-.053.035.513.513,0,0,1-.122.019c-.054,0-.127.006-.221.006-.078,0-.14,0-.187-.006a.407.407,0,0,1-.109-.02.123.123,0,0,1-.057-.039.234.234,0,0,1-.028-.057l-.323-.806c-.038-.09-.077-.171-.114-.242a.8.8,0,0,0-.124-.177.452.452,0,0,0-.158-.107.534.534,0,0,0-.206-.036h-.229v1.373a.075.075,0,0,1-.018.051.126.126,0,0,1-.06.036.625.625,0,0,1-.111.022,1.551,1.551,0,0,1-.178.008,1.589,1.589,0,0,1-.178-.008.617.617,0,0,1-.113-.022.122.122,0,0,1-.059-.036.08.08,0,0,1-.017-.051v-3.274a.205.205,0,0,1,.217-.232h.934c.095,0,.172,0,.234.006s.117.009.167.015a1.493,1.493,0,0,1,.392.106.929.929,0,0,1,.3.2.822.822,0,0,1,.186.287,1.044,1.044,0,0,1,.064.38,1.135,1.135,0,0,1-.046.331.843.843,0,0,1-.356.469,1.138,1.138,0,0,1-.3.14.837.837,0,0,1,.151.094.8.8,0,0,1,.134.135,1.317,1.317,0,0,1,.118.181,2.446,2.446,0,0,1,.109.23l.3.711c.028.071.047.122.056.154A.311.311,0,0,1,355.277,754.521Zm-.944-2.447a.535.535,0,0,0-.081-.3.438.438,0,0,0-.265-.172.876.876,0,0,0-.127-.023,1.756,1.756,0,0,0-.2-.009h-.329v1.023h.374a.9.9,0,0,0,.273-.037.546.546,0,0,0,.2-.106.433.433,0,0,0,.117-.163A.554.554,0,0,0,354.333,752.074Z" transform="translate(-335.554 -750.945)" fill="#c7c7c7"/>
            <path id="Path_10" data-name="Path 10" d="M358.58,753.541a1.122,1.122,0,0,1-.106.5,1.043,1.043,0,0,1-.287.358,1.257,1.257,0,0,1-.424.216,1.8,1.8,0,0,1-.518.072,1.886,1.886,0,0,1-.63-.1,1.2,1.2,0,0,1-.205-.09.58.58,0,0,1-.118-.083.209.209,0,0,1-.052-.1.954.954,0,0,1-.016-.2c0-.057,0-.106.006-.145a.4.4,0,0,1,.019-.095.1.1,0,0,1,.033-.052.083.083,0,0,1,.048-.016.232.232,0,0,1,.11.046,1.754,1.754,0,0,0,.183.1,1.665,1.665,0,0,0,.266.1,1.27,1.27,0,0,0,.358.046.831.831,0,0,0,.24-.033.53.53,0,0,0,.18-.09.4.4,0,0,0,.113-.145.463.463,0,0,0,.038-.191.334.334,0,0,0-.066-.211.678.678,0,0,0-.175-.157,1.767,1.767,0,0,0-.243-.127c-.091-.04-.185-.082-.282-.127a2.741,2.741,0,0,1-.282-.152,1.11,1.11,0,0,1-.243-.2.967.967,0,0,1-.175-.281,1.145,1.145,0,0,1,.029-.843.939.939,0,0,1,.259-.327,1.132,1.132,0,0,1,.385-.194,1.682,1.682,0,0,1,.469-.064,1.819,1.819,0,0,1,.5.073,1.311,1.311,0,0,1,.2.075.455.455,0,0,1,.115.069.251.251,0,0,1,.037.047.211.211,0,0,1,.017.052.613.613,0,0,1,.01.081c0,.033,0,.073,0,.122s0,.1,0,.136a.524.524,0,0,1-.015.091.106.106,0,0,1-.028.053.067.067,0,0,1-.048.017.225.225,0,0,1-.1-.038c-.045-.026-.1-.055-.165-.086a1.577,1.577,0,0,0-.226-.083,1.01,1.01,0,0,0-.282-.038.677.677,0,0,0-.208.029.439.439,0,0,0-.149.081.325.325,0,0,0-.09.124.418.418,0,0,0-.029.153.339.339,0,0,0,.066.209.609.609,0,0,0,.175.155,1.845,1.845,0,0,0,.25.128c.092.039.187.082.284.127a2.646,2.646,0,0,1,.284.151,1.179,1.179,0,0,1,.249.2.934.934,0,0,1,.175.278A.971.971,0,0,1,358.58,753.541Z" transform="translate(-335.095 -750.952)" fill="#c7c7c7"/>
            <path id="Path_11" data-name="Path 11" d="M360.561,754.517a.076.076,0,0,1-.018.051.126.126,0,0,1-.06.036.618.618,0,0,1-.112.023,2.019,2.019,0,0,1-.355,0,.626.626,0,0,1-.114-.023.131.131,0,0,1-.06-.036.075.075,0,0,1-.018-.051v-3.406a.074.074,0,0,1,.018-.05.128.128,0,0,1,.062-.036.547.547,0,0,1,.113-.023,1.487,1.487,0,0,1,.176-.009,1.513,1.513,0,0,1,.178.009.536.536,0,0,1,.112.023.126.126,0,0,1,.06.036.075.075,0,0,1,.018.05Z" transform="translate(-334.638 -750.947)" fill="#c7c7c7"/>
            <path id="Path_12" data-name="Path 12" d="M365.452,752.778a2.665,2.665,0,0,1-.112.8,1.617,1.617,0,0,1-.331.6,1.423,1.423,0,0,1-.545.376,2.007,2.007,0,0,1-.75.13,2.2,2.2,0,0,1-.735-.11,1.269,1.269,0,0,1-.523-.336,1.44,1.44,0,0,1-.313-.574,2.875,2.875,0,0,1-.1-.825,2.587,2.587,0,0,1,.112-.787,1.61,1.61,0,0,1,.331-.595,1.451,1.451,0,0,1,.545-.376,2,2,0,0,1,.754-.132,2.211,2.211,0,0,1,.723.109,1.256,1.256,0,0,1,.524.335,1.436,1.436,0,0,1,.318.57A2.722,2.722,0,0,1,365.452,752.778Zm-.768.038a2.794,2.794,0,0,0-.045-.517,1.1,1.1,0,0,0-.152-.4.73.73,0,0,0-.285-.257.992.992,0,0,0-.446-.09.915.915,0,0,0-.452.1.839.839,0,0,0-.293.271,1.118,1.118,0,0,0-.157.4,2.346,2.346,0,0,0-.046.48,2.92,2.92,0,0,0,.044.532,1.151,1.151,0,0,0,.151.4.7.7,0,0,0,.284.255,1.017,1.017,0,0,0,.45.088.912.912,0,0,0,.451-.1.8.8,0,0,0,.293-.273,1.139,1.139,0,0,0,.158-.4A2.5,2.5,0,0,0,364.684,752.817Z" transform="translate(-334.358 -750.952)" fill="#c7c7c7"/>
            <path id="Path_13" data-name="Path 13" d="M369.6,754.361a.281.281,0,0,1-.023.114.228.228,0,0,1-.06.083.24.24,0,0,1-.089.05.374.374,0,0,1-.1.015h-.312a.663.663,0,0,1-.169-.019.347.347,0,0,1-.131-.071.624.624,0,0,1-.116-.14q-.056-.088-.125-.226l-.9-1.687q-.078-.151-.159-.324c-.054-.116-.1-.229-.144-.339h-.006c.007.134.012.267.017.4s.006.27.006.411v1.887a.086.086,0,0,1-.016.05.118.118,0,0,1-.053.038.427.427,0,0,1-.1.024,1.332,1.332,0,0,1-.164.008,1.305,1.305,0,0,1-.162-.008.415.415,0,0,1-.1-.024.106.106,0,0,1-.05-.038.085.085,0,0,1-.015-.05v-3.242a.246.246,0,0,1,.077-.2.284.284,0,0,1,.188-.066h.393a.781.781,0,0,1,.178.018.36.36,0,0,1,.13.061.466.466,0,0,1,.108.115,1.6,1.6,0,0,1,.1.183l.7,1.318.121.235c.041.078.079.154.116.232s.073.152.108.227.07.149.1.223h0c-.006-.13-.009-.266-.012-.407s0-.276,0-.4V751.12a.081.081,0,0,1,.017-.051.14.14,0,0,1,.056-.038.355.355,0,0,1,.1-.024,1.306,1.306,0,0,1,.165-.008,1.244,1.244,0,0,1,.159.008.313.313,0,0,1,.1.024.11.11,0,0,1,.048.038.087.087,0,0,1,.015.051Z" transform="translate(-333.776 -750.946)" fill="#c7c7c7"/>
            <path id="Path_14" data-name="Path 14" d="M375.119,754.311a1.222,1.222,0,0,1-.007.141.426.426,0,0,1-.021.095.109.109,0,0,1-.035.054.074.074,0,0,1-.048.017h-1.653a.229.229,0,0,1-.154-.054.223.223,0,0,1-.063-.177v-3.275a.075.075,0,0,1,.018-.05.131.131,0,0,1,.06-.036.529.529,0,0,1,.114-.023,1.76,1.76,0,0,1,.355,0,.535.535,0,0,1,.112.023.126.126,0,0,1,.06.036.075.075,0,0,1,.018.05v2.9h1.135a.08.08,0,0,1,.048.016.1.1,0,0,1,.035.051.365.365,0,0,1,.021.091A1.235,1.235,0,0,1,375.119,754.311Z" transform="translate(-332.951 -750.947)" fill="#c7c7c7"/>
            <path id="Path_15" data-name="Path 15" d="M377.029,754.517a.082.082,0,0,1-.018.051.13.13,0,0,1-.061.036.578.578,0,0,1-.112.023,2.019,2.019,0,0,1-.355,0,.611.611,0,0,1-.113-.023.121.121,0,0,1-.06-.036.076.076,0,0,1-.018-.051v-3.406a.075.075,0,0,1,.018-.05.119.119,0,0,1,.061-.036.565.565,0,0,1,.113-.023,1.487,1.487,0,0,1,.176-.009,1.515,1.515,0,0,1,.178.009.506.506,0,0,1,.112.023.13.13,0,0,1,.061.036.081.081,0,0,1,.018.05Z" transform="translate(-332.551 -750.947)" fill="#c7c7c7"/>
            <path id="Path_16" data-name="Path 16" d="M380.819,753.541a1.122,1.122,0,0,1-.106.5,1.043,1.043,0,0,1-.287.358,1.258,1.258,0,0,1-.424.216,1.8,1.8,0,0,1-.518.072,1.887,1.887,0,0,1-.63-.1,1.2,1.2,0,0,1-.205-.09.581.581,0,0,1-.118-.083.209.209,0,0,1-.052-.1.955.955,0,0,1-.016-.2c0-.057,0-.106.006-.145a.488.488,0,0,1,.018-.095.109.109,0,0,1,.034-.052.081.081,0,0,1,.048-.016.236.236,0,0,1,.11.046,1.755,1.755,0,0,0,.182.1,1.664,1.664,0,0,0,.266.1,1.27,1.27,0,0,0,.358.046.832.832,0,0,0,.24-.033.529.529,0,0,0,.18-.09.4.4,0,0,0,.113-.145.462.462,0,0,0,.038-.191.334.334,0,0,0-.067-.211.678.678,0,0,0-.175-.157,1.766,1.766,0,0,0-.243-.127c-.091-.04-.185-.082-.282-.127a2.736,2.736,0,0,1-.282-.152,1.111,1.111,0,0,1-.243-.2.97.97,0,0,1-.175-.281,1.145,1.145,0,0,1,.029-.843.938.938,0,0,1,.259-.327,1.121,1.121,0,0,1,.385-.194,1.682,1.682,0,0,1,.469-.064,1.818,1.818,0,0,1,.5.073,1.31,1.31,0,0,1,.2.075.481.481,0,0,1,.115.069.247.247,0,0,1,.037.047.214.214,0,0,1,.017.052.608.608,0,0,1,.01.081c0,.033,0,.073,0,.122s0,.1,0,.136a.433.433,0,0,1-.014.091.105.105,0,0,1-.028.053.067.067,0,0,1-.048.017.233.233,0,0,1-.1-.038c-.044-.026-.1-.055-.164-.086a1.515,1.515,0,0,0-.225-.083,1.01,1.01,0,0,0-.282-.038.672.672,0,0,0-.208.029.457.457,0,0,0-.15.081.333.333,0,0,0-.089.124.417.417,0,0,0-.029.153.346.346,0,0,0,.065.209.629.629,0,0,0,.176.155,1.848,1.848,0,0,0,.25.128c.092.039.187.082.284.127a2.656,2.656,0,0,1,.284.151,1.146,1.146,0,0,1,.248.2.915.915,0,0,1,.176.278A.971.971,0,0,1,380.819,753.541Z" transform="translate(-332.276 -750.952)" fill="#c7c7c7"/>
            <path id="Path_17" data-name="Path 17" d="M384.454,751.31a1.209,1.209,0,0,1-.007.139.39.39,0,0,1-.02.092.139.139,0,0,1-.035.051.074.074,0,0,1-.046.017h-.9v2.907a.076.076,0,0,1-.019.051.121.121,0,0,1-.06.036.6.6,0,0,1-.113.022,1.991,1.991,0,0,1-.354,0,.6.6,0,0,1-.113-.022.121.121,0,0,1-.06-.036.075.075,0,0,1-.018-.051v-2.907h-.9a.07.07,0,0,1-.047-.017.127.127,0,0,1-.034-.051.4.4,0,0,1-.02-.092,1.208,1.208,0,0,1-.007-.139,1.269,1.269,0,0,1,.007-.142.408.408,0,0,1,.02-.094.112.112,0,0,1,.034-.049.074.074,0,0,1,.047-.016h2.542a.078.078,0,0,1,.046.016.121.121,0,0,1,.035.049.4.4,0,0,1,.02.094A1.271,1.271,0,0,1,384.454,751.31Z" transform="translate(-331.867 -750.945)" fill="#c7c7c7"/>
            <path id="Path_18" data-name="Path 18" d="M390.638,753.275a1.684,1.684,0,0,1-.1.594,1.152,1.152,0,0,1-.286.443,1.255,1.255,0,0,1-.469.276,1.991,1.991,0,0,1-.641.095,2.047,2.047,0,0,1-.611-.085,1.194,1.194,0,0,1-.456-.258,1.13,1.13,0,0,1-.286-.43,1.672,1.672,0,0,1-.1-.6v-2.194a.08.08,0,0,1,.017-.05.12.12,0,0,1,.06-.036.563.563,0,0,1,.113-.023,1.537,1.537,0,0,1,.179-.009,1.515,1.515,0,0,1,.176.009.533.533,0,0,1,.112.023.131.131,0,0,1,.06.036.081.081,0,0,1,.018.05v2.129a1.149,1.149,0,0,0,.053.372.671.671,0,0,0,.152.261.613.613,0,0,0,.237.154.937.937,0,0,0,.617,0,.62.62,0,0,0,.231-.154.716.716,0,0,0,.146-.251,1.052,1.052,0,0,0,.052-.339v-2.171a.08.08,0,0,1,.017-.05.111.111,0,0,1,.059-.036A.518.518,0,0,1,390.1,751a1.522,1.522,0,0,1,.177-.009,1.447,1.447,0,0,1,.174.009.522.522,0,0,1,.11.023.116.116,0,0,1,.059.036.08.08,0,0,1,.017.05Z" transform="translate(-331.107 -750.947)" fill="#c7c7c7"/>
            <path id="Path_19" data-name="Path 19" d="M394.99,754.361a.28.28,0,0,1-.023.114.228.228,0,0,1-.06.083.24.24,0,0,1-.089.05.373.373,0,0,1-.1.015H394.4a.663.663,0,0,1-.169-.019.347.347,0,0,1-.131-.071.623.623,0,0,1-.116-.14,2.576,2.576,0,0,1-.125-.226l-.9-1.687q-.078-.151-.159-.324c-.054-.116-.1-.229-.144-.339h-.006c.007.134.012.267.017.4s.006.27.006.411v1.887a.086.086,0,0,1-.016.05.119.119,0,0,1-.053.038.425.425,0,0,1-.1.024,1.332,1.332,0,0,1-.164.008,1.3,1.3,0,0,1-.162-.008.415.415,0,0,1-.1-.024.107.107,0,0,1-.05-.038.085.085,0,0,1-.015-.05v-3.242a.246.246,0,0,1,.077-.2.285.285,0,0,1,.188-.066h.393a.782.782,0,0,1,.178.018.36.36,0,0,1,.13.061.467.467,0,0,1,.108.115,1.588,1.588,0,0,1,.1.183l.7,1.318.121.235c.041.078.079.154.116.232s.073.152.108.227.07.149.1.223h0c-.006-.13-.009-.266-.012-.407s0-.276,0-.4V751.12a.081.081,0,0,1,.017-.051.14.14,0,0,1,.056-.038.355.355,0,0,1,.1-.024,1.305,1.305,0,0,1,.164-.008,1.245,1.245,0,0,1,.159.008.312.312,0,0,1,.1.024.109.109,0,0,1,.048.038.087.087,0,0,1,.015.051Z" transform="translate(-330.559 -750.946)" fill="#c7c7c7"/>
            <path id="Path_20" data-name="Path 20" d="M397.1,754.517a.077.077,0,0,1-.019.051.121.121,0,0,1-.06.036.577.577,0,0,1-.112.023,2.019,2.019,0,0,1-.355,0,.593.593,0,0,1-.113-.023.121.121,0,0,1-.06-.036.077.077,0,0,1-.019-.051v-3.406a.076.076,0,0,1,.019-.05.119.119,0,0,1,.061-.036.563.563,0,0,1,.113-.023,1.487,1.487,0,0,1,.176-.009,1.516,1.516,0,0,1,.178.009.5.5,0,0,1,.112.023.121.121,0,0,1,.06.036.076.076,0,0,1,.019.05Z" transform="translate(-330.008 -750.947)" fill="#c7c7c7"/>
            <path id="Path_21" data-name="Path 21" d="M401.169,751.31a1.224,1.224,0,0,1-.007.139.341.341,0,0,1-.021.092.117.117,0,0,1-.035.051.069.069,0,0,1-.045.017h-.9v2.907a.075.075,0,0,1-.018.051.126.126,0,0,1-.06.036.616.616,0,0,1-.113.022,1.991,1.991,0,0,1-.354,0,.634.634,0,0,1-.114-.022.133.133,0,0,1-.06-.036.081.081,0,0,1-.018-.051v-2.907h-.9a.068.068,0,0,1-.047-.017.127.127,0,0,1-.034-.051.458.458,0,0,1-.021-.092,1.224,1.224,0,0,1-.007-.139,1.285,1.285,0,0,1,.007-.142.472.472,0,0,1,.021-.094.112.112,0,0,1,.034-.049.072.072,0,0,1,.047-.016h2.542a.072.072,0,0,1,.045.016.1.1,0,0,1,.035.049.35.35,0,0,1,.021.094A1.285,1.285,0,0,1,401.169,751.31Z" transform="translate(-329.749 -750.945)" fill="#c7c7c7"/>
            <path id="Path_22" data-name="Path 22" d="M403.747,753.25v1.268a.077.077,0,0,1-.019.051.121.121,0,0,1-.06.036.59.59,0,0,1-.113.023,2.02,2.02,0,0,1-.355,0,.634.634,0,0,1-.113-.023.119.119,0,0,1-.061-.036.079.079,0,0,1-.016-.051V753.25l-.987-1.965a.91.91,0,0,1-.069-.161.079.079,0,0,1,.017-.086.2.2,0,0,1,.118-.036c.058,0,.138-.008.24-.008.086,0,.153,0,.205.006a.529.529,0,0,1,.121.021.137.137,0,0,1,.065.041.284.284,0,0,1,.041.064l.4.886q.057.128.115.27c.038.095.077.195.116.3h.006c.035-.1.071-.2.108-.293s.073-.185.109-.27l.4-.88a.206.206,0,0,1,.035-.071.144.144,0,0,1,.063-.044.409.409,0,0,1,.114-.022c.048,0,.113-.006.193-.006.106,0,.188,0,.247.008a.2.2,0,0,1,.12.036.08.08,0,0,1,.016.088,1.053,1.053,0,0,1-.068.159Z" transform="translate(-329.3 -750.947)" fill="#c7c7c7"/>
        </g>
    </g>
</svg>
