{
  "files": {
    "main.css": "/index/static/css/main.3288db2f.chunk.css",
    "main.js": "/index/static/js/main.625802bf.chunk.js",
    "main.js.map": "/index/static/js/main.625802bf.chunk.js.map",
    "runtime-main.js": "/index/static/js/runtime-main.58ba7961.js",
    "runtime-main.js.map": "/index/static/js/runtime-main.58ba7961.js.map",
    "static/js/2.2029747f.chunk.js": "/index/static/js/2.2029747f.chunk.js",
    "static/js/2.2029747f.chunk.js.map": "/index/static/js/2.2029747f.chunk.js.map",
    "index.html": "/index/index.html",
    "precache-manifest.c56d17bf87ca6abad936a12b1bd23303.js": "/index/precache-manifest.c56d17bf87ca6abad936a12b1bd23303.js",
    "service-worker.js": "/index/service-worker.js",
    "static/css/main.3288db2f.chunk.css.map": "/index/static/css/main.3288db2f.chunk.css.map",
    "static/js/2.2029747f.chunk.js.LICENSE.txt": "/index/static/js/2.2029747f.chunk.js.LICENSE.txt"
  },
  "entrypoints": [
    "static/js/runtime-main.58ba7961.js",
    "static/js/2.2029747f.chunk.js",
    "static/css/main.3288db2f.chunk.css",
    "static/js/main.625802bf.chunk.js"
  ]
}